<?xml version="1.0" standalone="no"?>
<!DOCTYPE svg PUBLIC "-//W3C//DTD SVG 20010904//EN"
 "http://www.w3.org/TR/2001/REC-SVG-20010904/DTD/svg10.dtd">
<svg version="1.0" xmlns="http://www.w3.org/2000/svg"
 width="201.000000pt" height="201.000000pt" viewBox="0 0 201.000000 201.000000"
 preserveAspectRatio="xMidYMid meet">
<metadata>
Created by potrace 1.11, written by Peter Selinger 2001-2013
</metadata>
<g transform="translate(0.000000,201.000000) scale(0.100000,-0.100000)"
fill="#000000" stroke="none">
<path d="M1050 1824 l0 -41 -84 -6 c-433 -31 -756 -402 -720 -830 7 -83 18
-106 29 -57 4 16 10 32 15 35 5 3 32 -4 60 -15 28 -11 54 -20 58 -20 4 0 5 44
4 97 -5 121 8 184 60 292 91 190 297 327 504 334 l69 2 5 -38 5 -38 80 81 80
80 -83 83 -82 82 0 -41z"/>
<path d="M1213 1732 c15 -15 27 -33 27 -39 0 -6 -20 -29 -45 -52 l-44 -41 27
-6 c15 -4 54 -19 87 -34 298 -134 434 -489 304 -791 l-21 -48 -30 15 c-16 9
-32 13 -35 10 -5 -5 51 -170 66 -194 5 -9 33 -3 110 25 107 38 106 37 56 68
-14 9 -13 16 10 73 167 411 -47 877 -472 1023 -72 24 -72 24 -40 -9z"/>
<path d="M914 1486 c-128 -25 -240 -102 -318 -217 -52 -77 -76 -162 -76 -270
0 -124 26 -195 117 -328 85 -125 201 -299 287 -431 89 -138 87 -138 211 52 55
84 144 218 199 298 150 220 185 310 172 452 -21 226 -194 412 -416 448 -78 12
-97 12 -176 -4z m220 -248 c96 -48 150 -133 150 -238 0 -241 -285 -360 -454
-190 -149 148 -77 399 127 450 52 12 127 3 177 -22z"/>
<path d="M267 798 c-20 -56 -35 -103 -33 -106 2 -2 13 1 24 7 27 14 52 14 52
-1 0 -24 82 -149 137 -209 100 -108 232 -188 370 -223 33 -9 63 -16 67 -16 3
0 -25 47 -61 104 -59 91 -74 108 -131 142 -73 45 -152 126 -199 205 -48 81
-48 84 -14 99 17 7 31 16 31 20 0 4 -42 22 -92 40 -51 18 -98 35 -103 37 -6 2
-27 -42 -48 -99z"/>
<path d="M1437 579 c-26 -27 -74 -65 -107 -85 -50 -31 -70 -52 -125 -138 -37
-55 -62 -102 -56 -104 19 -6 196 59 253 94 76 47 161 116 189 156 20 27 20 31
5 25 -58 -22 -61 -21 -81 38 -10 31 -21 57 -24 59 -3 1 -28 -19 -54 -45z"/>
</g>
</svg>
