{
  "name": "acl",
  "plural": "acls",
  "base": "ACL",
  "idInjection": true,
  "properties": {},
  "validations": [],
  "relations": {
    "role": {
      "type": "belongsTo",
      "model": "role",
      "foreignKey": "roleId"
    }
  },
  "acls": [
    {
      "accessType": "*",
      "principalType": "ROLE",
      "principalId": "$everyone",
      "permission": "DENY"
    },
    {
      "accessType": "*",
      "principalType": "ROLE",
      "principalId": "initialize",
      "permission": "ALLOW"
    }
  ],
  "methods": []
}
