{
  "name": "agregado",
  "plural": "agregados",
  "base": "PersistedModel",
  "idInjection": true,
  "properties": {
    "name": {
      "type": "string",
      "required": true
    },
    "photo": {
      "type": "string"
    },
    "description": {
      "type": "string"
    }
  },
  "validations": [],
  "relations": {
    "agregadoAsignaciones": {
      "type": "hasMany",
      "model": "agregadoAsignacion",
      "foreignKey": ""
    }
  },
  "acls": [
    {
      "accessType": "*",
      "principalType": "ROLE",
      "principalId": "$everyone",
      "permission": "DENY"
    },
    {
      "accessType": "*",
      "principalType": "ROLE",
      "principalId": "initialize",
      "permission": "ALLOW"
    }
  ],
  "methods": []
}
