{
  "name": "carro",
  "plural": "carros",
  "base": "PersistedModel",
  "idInjection": true,
  "options": {
    "validateUpsert": true
  },
  "properties": {
    "licensePlate": {
      "type": "string",
      "required": true
    }
  },
  "validations": [],
  "relations": {
    "flota": {
      "type": "belongsTo",
      "model": "flota",
      "foreignKey": "flotaId"
    }
  },
  "acls": [],
  "methods": []
}
