{
  "name": "persona",
  "plural": "personas",
  "base": "PersistedModel",
  "idInjection": true,
  "options": {
    "validateUpsert": true
  },
  "properties": {
    "firstName": {
      "type": "string",
      "required": true
    },
    "photo": {
      "type": "string"
    },
    "middleName": {
      "type": "string"
    },
    "lastName": {
      "type": "string",
      "required": true
    },
    "secondLastName": {
      "type": "string",
      "required": true
    },
    "birthdayDate": {
      "type": "date",
      "required": true
    },
    "sex": {
      "type": "string",
      "required": true
    },
    "identityDocument": {
      "type": "object",
      "required": true
    }
  },
  "validations": [],
  "relations": {},
  "acls": [],
  "methods": []
}
