{
  "name": "remuneracion",
  "plural": "remuneracion",
  "base": "PersistedModel",
  "idInjection": true,
  "options": {
    "validateUpsert": true
  },
  "properties": {
    "payday": {
      "type": "number",
      "required": true
    }
  },
  "validations": [],
  "relations": {
    "trabajador": {
      "type": "belongsTo",
      "model": "trabajador",
      "foreignKey": "trabajadorId"
    },
    "afp": {
      "type": "belongsTo",
      "model": "afp",
      "foreignKey": "afpId"
    }
  },
  "acls": [],
  "methods": []
}
